{
  "type": {
    "MONEY": {
      "title": "treasures.booster.money.title",
      "content": "treasures.booster.money.content",
      "color": "§6",
      "emoji": "\ue03c"
    },
    "EXP": {
      "title": "treasures.booster.exp.title",
      "content": "treasures.booster.exp.content",
      "color": "§b",
      "emoji": "\ue1a6"
    },
    "BLOCKS": {
      "title": "treasures.booster.blocks.title",
      "content": "treasures.booster.blocks.content",
      "color": "§c",
      "emoji": "\ue1f6"
    },
    "TREASURES": {
      "title": "treasures.booster.treasures.title",
      "content": "treasures.booster.treasures.content",
      "color": "§6",
      "emoji": "\ue120"
    }
  }
}