{
  "message": {
    "emptyDnk": "treasures.sell.message.empty-dnk",
    "soldDnk": "treasures.sell.message.sold-dnk",
    "emptyTreasures": "treasures.sell.message.empty-treasures",
    "soldTreasures": "treasures.sell.message.sold-treasures"
  },
  "tag": {
    "treasure": "treasure",
    "price": "price"
  },
  "scale": {
    "blocks": {
      "1": 5,
      "2": 10,
      "3": 13,
      "4": 15,
      "5": 23,
      "6": 23,
      "7": 25
    },
    "treasures": {
      "1": 7,
      "2": 10,
      "3": 40,
      "4": 60,
      "5": 90,
      "6": 125,
      "7": 200
    }
  }
}
