{
  "requiredLevelMessage": "katana.location.message.required-level",
  "requiredRebirthMessage": "katana.location.message.required-rebirth",
  "locations": {
    "AZTECKS": {
      "slots": 125,
      "map": "map2",
      "button": {
        "id": 1,
        "title": "katana.location.aztecks.title",
        "texture": "locations/1.png",
        "hint": "Перейти",
        "requiredLevel": 1
      },
      "pvpBox": {
        "name": "pvp",
        "tag": "1"
      },
      "damage": 3.0,
      "boost": 1.2,
      "ninjaSkin": "https://storage.c7x.dev/topil_ov/katana/skins/aztecks.png",
      "ninjaName": "",
      "enablePvp": true
    },
    "BEACH": {
      "slots": 125,
      "map": "map4",
      "button": {
        "id": 2,
        "title": "katana.location.beach.title",
        "texture": "locations/2.png",
        "hint": "Перейти",
        "requiredLevel": 2
      },
      "pvpBox": {
        "name": "pvp",
        "tag": "1"
      },
      "damage": 2.75,
      "boost": 1.4,
      "ninjaSkin": "https://storage.c7x.dev/topil_ov/katana/skins/beach.png",
      "ninjaName": "",
      "enablePvp": true
    },
    "CYBERPUNK": {
      "slots": 125,
      "map": "map7",
      "button": {
        "id": 3,
        "title": "katana.location.cyberpunk.title",
        "texture": "locations/3.png",
        "hint": "Перейти",
        "requiredLevel": 1
      },
      "pvpBox": {
        "name": "pvp",
        "tag": "1"
      },
      "damage": 2.5,
      "boost": 1.6,
      "ninjaSkin": "https://storage.c7x.dev/topil_ov/katana/skins/cyberpunk.png",
      "ninjaName": "",
      "enablePvp": true
    },
    "SPACE": {
      "slots": 125,
      "map": "map5",
      "button": {
        "id": 4,
        "title": "katana.location.space.title",
        "texture": "locations/4.png",
        "hint": "Перейти",
        "requiredLevel": 4
      },
      "pvpBox": {
        "name": "pvp",
        "tag": "1"
      },
      "damage": 2.25,
      "boost": 1.8,
      "ninjaSkin": "https://storage.c7x.dev/topil_ov/katana/skins/space.png",
      "ninjaName": "",
      "enablePvp": true
    },
    "CHINA": {
      "slots": 125,
      "map": "map1",
      "button": {
        "id": 5,
        "title": "katana.location.china.title",
        "texture": "locations/5.png",
        "hint": "Перейти",
        "requiredLevel": 5
      },
      "pvpBox": {
        "name": "pvp",
        "tag": "1"
      },
      "damage": 2.0,
      "boost": 2.0,
      "ninjaSkin": "https://storage.c7x.dev/topil_ov/katana/skins/china.png",
      "ninjaName": "",
      "enablePvp": true
    },
    "ATLANTIDA": {
      "slots": 125,
      "map": "map6",
      "button": {
        "id": 6,
        "title": "katana.location.antlantida.title",
        "texture": "locations/6.png",
        "hint": "Перейти",
        "requiredLevel": 6
      },
      "pvpBox": {
        "name": "pvp",
        "tag": "1"
      },
      "damage": 1.75,
      "boost": 2.2,
      "ninjaSkin": "https://storage.c7x.dev/topil_ov/katana/skins/antlantida.png",
      "ninjaName": "",
      "enablePvp": true
    },
    "FOREST": {
      "slots": 125,
      "map": "map3",
      "button": {
        "id": 7,
        "title": "katana.location.forest.title",
        "texture": "locations/7.png",
        "hint": "Перейти",
        "requiredLevel": 7
      },
      "pvpBox": {
        "name": "pvp",
        "tag": "1"
      },
      "damage": 1.5,
      "boost": 2.4,
      "ninjaSkin": "https://storage.c7x.dev/topil_ov/katana/skins/forest.png",
      "ninjaName": "",
      "enablePvp": true
    },
    "CITY": {
      "slots": 125,
      "map": "map8",
      "button": {
        "id": 8,
        "title": "katana.location.city.title",
        "texture": "locations/8.png",
        "hint": "Перейти",
        "requiredLevel": 8
      },
      "pvpBox": {
        "name": "pvp",
        "tag": "1"
      },
      "damage": 1.25,
      "boost": 2.6,
      "ninjaSkin": "https://storage.c7x.dev/topil_ov/katana/skins/city.png",
      "ninjaName": "",
      "enablePvp": true
    },
    "LIBRARY": {
      "slots": 125,
      "map": "map9",
      "button": {
        "id": 9,
        "title": "katana.location.library.title",
        "texture": "locations/9.png",
        "hint": "Перейти",
        "requiredLevel": 9
      },
      "pvpBox": {
        "name": "pvp",
        "tag": "1"
      },
      "damage": 1.0,
      "boost": 2.8,
      "ninjaSkin": "https://storage.c7x.dev/topil_ov/katana/skins/library.png",
      "ninjaName": "",
      "enablePvp": true
    },
    "EVENTS": {
      "slots": 300,
      "map": "map10",
      "button": {
        "id": 10,
        "title": "katana.location.event.title",
        "texture": "locations/10.png",
        "hint": "Перейти",
        "requiredLevel": 1
      },
      "pvpBox": {
        "name": "pvp",
        "tag": "1"
      },
      "damage": 3.0,
      "boost": 1.2,
      "ninjaSkin": "",
      "ninjaName": "",
      "enablePvp": true
    },
    "VILLAGE": {
      "slots": 300,
      "map": "map11",
      "button": {
        "id": 11,
        "title": "katana.location.village.title",
        "texture": "locations/11.png",
        "hint": "Перейти",
        "requiredLevel": 1
      },
      "pvpBox": {
        "name": "pvp",
        "tag": "1"
      },
      "damage": 0.0,
      "boost": 1.2,
      "ninjaSkin": "",
      "ninjaName": "",
      "enablePvp": false
    }
  }
}