{
    "message": {
        "alreadyExists": "katana.lootbox.pets.message.already-exists"
    },
    "hover": "katana.pet.hover",
    "maxLevelMessage": "katana.pet.message.max-level",
    "pipeline": {
      "menuTitle": "katana.pet.pipeline.menu-title",
      "menuDescription": "katana.pet.pipeline.menu-description",
      "title": "katana.pet.pipeline.title",
      "description": "katana.pet.pipeline.description",
      "messages": {
        "moreMoney": "katana.message.more-money",
        "moreRebirth": "katana.message.more-rebirth",
        "success": "katana.pet.pipeline.message.success"
      }
    },
    "pets": {
        "CHEST": {
            "id": "chest",
            "title": "katana.pet.chest.name",
            "description": "i18n.katana.pet.menu.hover|!|katana.rare.common|!|katana.pet.booster.kills|!|katana.text.click-to-upgrade",
            "rare": "COMMON",
            "boosters": [
                "KILLS"
            ],
            "texture": {
                "type": "SKULL_ITEM",
                "damage": 3,
                "ownerTexture": "eyJ0ZXh0dXJlcyI6eyJTS0lOIjp7InVybCI6Imh0dHA6Ly90ZXh0dXJlcy5taW5lY3JhZnQubmV0L3RleHR1cmUvNWQyMDE1YTcwNWU0ZTVhMDRiMGU5OTQ3MzgxMTdkMDYyMzkxYjBlOWI1MDU5NmQ2NjE1YTlhMTlkY2Y1N2YyNiJ9fX0"
            }
        },
        "ELEPHANT": {
            "id": "elephant",
            "title": "katana.pet.elephant.name",
            "description": "i18n.katana.pet.menu.hover|!|katana.rare.common|!|katana.pet.booster.money|!|katana.text.click-to-upgrade",
            "rare": "COMMON",
            "boosters": [
                "MONEY"
            ],
            "texture": {
                "type": "SKULL_ITEM",
                "damage": 3,
                "ownerTexture": "eyJ0ZXh0dXJlcyI6eyJTS0lOIjp7InVybCI6Imh0dHA6Ly90ZXh0dXJlcy5taW5lY3JhZnQubmV0L3RleHR1cmUvNzA3MWE3NmY2NjlkYjVlZDZkMzJiNDhiYjJkYmE1NWQ1MzE3ZDdmNDUyMjVjYjMyNjdlYzQzNWNmYTUxNCJ9fX0="
            }
        },
        "CHICK": {
            "id": "chick",
            "title": "katana.pet.chick.name",
            "description": "i18n.katana.pet.menu.hover|!|katana.rare.common|!|katana.pet.booster.exp|!|katana.text.click-to-upgrade",
            "rare": "COMMON",
            "boosters": [
                "EXP"
            ],
            "texture": {
                "type": "SKULL_ITEM",
                "damage": 3,
                "ownerTexture": "eyJ0ZXh0dXJlcyI6eyJTS0lOIjp7InVybCI6Imh0dHA6Ly90ZXh0dXJlcy5taW5lY3JhZnQubmV0L3RleHR1cmUvOWYyNjg4M2RjMjhhNDljYjU4MmI2MGM2ZGNjZGNhMTczZDQ1ZjdiMWE3Yjg2OTBjYThjZTQzY2RlMGUxMzU4OSJ9fX0="
            }
        },
        "PIRATE_PARROT": {
            "id": "pirate_parrot",
            "title": "katana.pet.pirate-parrot.name",
            "description": "i18n.katana.pet.menu.hover|!|katana.rare.common|!|katana.pet.booster.exp|!|katana.text.click-to-upgrade",
            "rare": "COMMON",
            "boosters": [
                "EXP"
            ],
            "texture": {
                "type": "SKULL_ITEM",
                "damage": 3,
                "ownerTexture": "eyJ0ZXh0dXJlcyI6eyJTS0lOIjp7InVybCI6Imh0dHA6Ly90ZXh0dXJlcy5taW5lY3JhZnQubmV0L3RleHR1cmUvNWEyMGNjM2Y4Y2M0ZmM1MTQyOWM4Mjg4ZTZjMWNmZjY1YzU1ODg0YzU1NjE0OTVmYzFkNmFhYWVlM2M2ZGQyZiJ9fX0="
            }
        },
        "HEDGEHOG": {
            "id": "hedgehog",
            "title": "katana.pet.hedgehog.name",
            "description": "i18n.katana.pet.menu.hover|!|katana.rare.common|!|katana.pet.booster.hits|!|katana.text.click-to-upgrade",
            "rare": "COMMON",
            "boosters": [
                "HITS"
            ],
            "texture": {
                "type": "SKULL_ITEM",
                "damage": 3,
                "ownerTexture": "eyJ0ZXh0dXJlcyI6eyJTS0lOIjp7InVybCI6Imh0dHA6Ly90ZXh0dXJlcy5taW5lY3JhZnQubmV0L3RleHR1cmUvZDJkYWE2YmZiZWYyMDQ0MTk3NmIxZTUxNzk2MmUyNzQ0NGRiYjBhZmVmN2VlYjkwMWQzZWNmNjhjMWViNDllNiJ9fX0="
            }
        },
        "FOX": {
            "id": "fox",
            "title": "katana.pet.fox.name",
            "description": "i18n.katana.pet.menu.hover|!|katana.rare.common|!|katana.pet.booster.hits|!|katana.text.click-to-upgrade",
            "rare": "COMMON",
            "boosters": [
                "HITS"
            ],
            "texture": {
                "type": "SKULL_ITEM",
                "damage": 3,
                "ownerTexture": "eyJ0ZXh0dXJlcyI6eyJTS0lOIjp7InVybCI6Imh0dHA6Ly90ZXh0dXJlcy5taW5lY3JhZnQubmV0L3RleHR1cmUvZDg5NTRhNDJlNjllMDg4MWFlNmQyNGQ0MjgxNDU5YzE0NGEwZDVhOTY4YWVkMzVkNmQzZDczYTNjNjVkMjZhIn19fQ=="
            }
        },
        "TREASURE": {
            "id": "pet_treasure",
            "title": "katana.pet.treasure.name",
            "description": "i18n.katana.pet.menu.hover|!|katana.rare.rare|!|katana.pet.booster.money-exp|!|katana.text.click-to-upgrade",
            "rare": "RARE",
            "boosters": [
                "MONEY",
                "EXP"
            ],
            "texture": {
                "type": "SKULL_ITEM",
                "damage": 3,
                "ownerTexture": "eyJ0ZXh0dXJlcyI6eyJTS0lOIjp7InVybCI6Imh0dHA6Ly90ZXh0dXJlcy5taW5lY3JhZnQubmV0L3RleHR1cmUvNWVhNWU4MDQxMzQ1YmEyNGJmYzg5NTQ2ZjRjODJiZThjZjlmOWJhNWE4ZTU1MzY1NDUzNDNhZTU5YjkzN2U5MiJ9fX0"
            }
        },
        "PIRATE": {
            "id": "pet_pirate",
            "title": "katana.pet.pirate.name",
            "description": "i18n.katana.pet.menu.hover|!|katana.rare.rare|!|katana.pet.booster.money-exp|!|katana.text.click-to-upgrade",
            "rare": "RARE",
            "boosters": [
                "MONEY",
                "EXP"
            ],
            "texture": {
                "type": "SKULL_ITEM",
                "damage": 3,
                "ownerTexture": "eyJ0ZXh0dXJlcyI6eyJTS0lOIjp7InVybCI6Imh0dHA6Ly90ZXh0dXJlcy5taW5lY3JhZnQubmV0L3RleHR1cmUvODkzZGMyY2UyOTA5ZjM1MjViMmQwNGQxMTEzYmUxMjQ5MzlmYTJiN2I5ZmIxYzY4NzZhMTk3ZDE2ODJhIn19fQ=="
            }
        },
        "FISH": {
            "id": "fish",
            "title": "katana.pet.fish.name",
            "description": "i18n.katana.pet.menu.hover|!|katana.rare.rare|!|katana.pet.booster.hits-kills|!|katana.text.click-to-upgrade",
            "rare": "RARE",
            "boosters": [
                "HITS",
                "KILLS"
            ],
            "texture": {
                "type": "SKULL_ITEM",
                "damage": 3,
                "ownerTexture": "eyJ0ZXh0dXJlcyI6eyJTS0lOIjp7InVybCI6Imh0dHA6Ly90ZXh0dXJlcy5taW5lY3JhZnQubmV0L3RleHR1cmUvMzZkMTQ5ZTRkNDk5OTI5NjcyZTI3Njg5NDllNjQ3Nzk1OWMyMWU2NTI1NDYxM2IzMjdiNTM4ZGYxZTRkZiJ9fX0="
            }
        },
        "CAPTAIN": {
            "id": "captain",
            "title": "katana.pet.captain.name",
            "description": "i18n.katana.pet.menu.hover|!|katana.rare.rare|!|katana.pet.booster.money-kills|!|katana.text.click-to-upgrade",
            "rare": "RARE",
            "boosters": [
                "MONEY",
                "KILLS"
            ],
            "texture": {
                "type": "SKULL_ITEM",
                "damage": 3,
                "ownerTexture": "eyJ0ZXh0dXJlcyI6eyJTS0lOIjp7InVybCI6Imh0dHA6Ly90ZXh0dXJlcy5taW5lY3JhZnQubmV0L3RleHR1cmUvYjZlY2I4NGJkYjkzNDZmMTI1YTM1MTJlNDE1MDA0YWM3MjQyZGVjNDNkNmY3NGUxZTg1MzkzZWQxZTFiIn19fQ=="
            }
        },
        "PUG": {
            "id": "pug",
            "title": "katana.pet.pug.name",
            "description": "i18n.katana.pet.menu.hover|!|katana.rare.rare|!|katana.pet.booster.exp-kills|!|katana.text.click-to-upgrade",
            "rare": "RARE",
            "boosters": [
                "EXP",
                "KILLS"
            ],
            "texture": {
                "type": "SKULL_ITEM",
                "damage": 3,
                "ownerTexture": "eyJ0ZXh0dXJlcyI6eyJTS0lOIjp7InVybCI6Imh0dHA6Ly90ZXh0dXJlcy5taW5lY3JhZnQubmV0L3RleHR1cmUvNDk1MTgzY2E0Y2RkMjk2MjhmZTZjNzIyZjc3OTA4N2I4M2MyMWJhOTdmNDIyNWU0YWQ5YjNlNjE4ZWNjZDMwIn19fQ=="
            }
        },
        "NINJA": {
            "id": "ninja",
            "title": "katana.pet.ninja.name",
            "description": "i18n.katana.pet.menu.hover|!|katana.rare.mythic|!|katana.pet.booster.money-exp-hits|!|katana.text.click-to-upgrade",
            "rare": "MYTHIC",
            "boosters": [
                "MONEY",
                "EXP",
                "HITS"
            ],
            "texture": {
                "type": "SKULL_ITEM",
                "damage": 3,
                "ownerTexture": "eyJ0ZXh0dXJlcyI6eyJTS0lOIjp7InVybCI6Imh0dHA6Ly90ZXh0dXJlcy5taW5lY3JhZnQubmV0L3RleHR1cmUvMmY3MzMyNjk2MTRmZThhOWFlODlmNWM1ODI4NmFhNTNiOWUzODNmYzRkYzU3ZTM3ZWNiZmE1ZTkzYSJ9fX0"
            }
        },
        "COOKIE": {
            "id": "cookie",
            "title": "katana.pet.cookie.name",
            "description": "i18n.katana.pet.menu.hover|!|katana.rare.mythic|!|katana.pet.booster.money-exp-kills|!|katana.text.click-to-upgrade",
            "rare": "MYTHIC",
            "boosters": [
                "MONEY",
                "EXP",
                "KILLS"
            ],
            "texture": {
                "type": "SKULL_ITEM",
                "damage": 3,
                "ownerTexture": "eyJ0ZXh0dXJlcyI6eyJTS0lOIjp7InVybCI6Imh0dHA6Ly90ZXh0dXJlcy5taW5lY3JhZnQubmV0L3RleHR1cmUvMmEzOWJiMjIxZWRmMTM3NjdhODBkNTU2MTJlOGI0NTk3ZjI2Y2NhYjdjOWQ0NWM4MDQwMGQ2Yjg1MDgzYTZkZSJ9fX0"
            }
        },
        "MUSHROOM": {
            "id": "mushroom",
            "title": "katana.pet.mushroom.name",
            "description": "i18n.katana.pet.menu.hover|!|katana.rare.mythic|!|katana.pet.booster.money-hits-kills|!|katana.text.click-to-upgrade",
            "rare": "MYTHIC",
            "boosters": [
                "MONEY",
                "HITS",
                "KILLS"
            ],
            "texture": {
                "type": "SKULL_ITEM",
                "damage": 3,
                "ownerTexture": "eyJ0ZXh0dXJlcyI6eyJTS0lOIjp7InVybCI6Imh0dHA6Ly90ZXh0dXJlcy5taW5lY3JhZnQubmV0L3RleHR1cmUvZWQ5MDk4Nzk2MmYzYThiZjk0YTE5N2QyYjk1MGNkZjFkZDc4ZDhiOTcyNTc3YmNhY2Q0ZDU4MzhmNzBhNDcyOSJ9fX0"
            }
        },
        "RUNE": {
            "id": "rune",
            "title": "katana.pet.rune.name",
            "description": "i18n.katana.pet.menu.hover|!|katana.rare.mythic|!|katana.pet.booster.hits-exp-kills|!|katana.text.click-to-upgrade",
            "rare": "MYTHIC",
            "boosters": [
                "HITS",
                "EXP",
                "KILLS"
            ],
            "texture": {
                "type": "SKULL_ITEM",
                "damage": 3,
                "ownerTexture": "eyJ0ZXh0dXJlcyI6eyJTS0lOIjp7InVybCI6Imh0dHA6Ly90ZXh0dXJlcy5taW5lY3JhZnQubmV0L3RleHR1cmUvNzZmMzNiMjk3YTk4MWI1MjdiZWMzOTMxNjg0MDFkOGEyZWNhZGViOWYxNjAzYmE1ZTI3NmY0MmQ2NDQ3NTExNiJ9fX0="
            }
        },
        "BEE": {
            "id": "bee",
            "title": "katana.pet.bee.name",
            "description": "i18n.katana.pet.menu.hover|!|katana.rare.legendary|!|katana.pet.booster.money-hits-exp-kills|!|katana.text.click-to-upgrade",
            "rare": "LEGENDARY",
            "boosters": [
                "MONEY",
                "HITS",
                "EXP",
                "KILLS"
            ],
            "texture": {
                "type": "SKULL_ITEM",
                "damage": 3,
                "ownerTexture": "eyJ0ZXh0dXJlcyI6eyJTS0lOIjp7InVybCI6Imh0dHA6Ly90ZXh0dXJlcy5taW5lY3JhZnQubmV0L3RleHR1cmUvMTI3MjRhOWE0Y2RkNjhiYTQ5NDE1NTYwZTViZTQwYjRhMWM0N2NiNWJlMWQ2NmFlZGI1MmEzMGU2MmVmMmQ0NyJ9fX0="
            }
        },
        "FUGUE": {
            "id": "fugue",
            "title": "katana.pet.fugue.name",
            "description": "i18n.katana.pet.menu.hover|!|katana.rare.legendary|!|katana.pet.booster.money-hits-exp-kills|!|katana.text.click-to-upgrade",
            "rare": "LEGENDARY",
            "boosters": [
                "MONEY",
                "HITS",
                "EXP",
                "KILLS"
            ],
            "texture": {
                "type": "SKULL_ITEM",
                "damage": 3,
                "ownerTexture": "eyJ0ZXh0dXJlcyI6eyJTS0lOIjp7InVybCI6Imh0dHA6Ly90ZXh0dXJlcy5taW5lY3JhZnQubmV0L3RleHR1cmUvMTcxNTI4NzZiYzNhOTZkZDJhMjI5OTI0NWVkYjNiZWVmNjQ3YzhhNTZhYzg4NTNhNjg3YzNlN2I1ZDhiYiJ9fX0="
            }
        },
        "EARTH": {
            "id": "earth",
            "title": "katana.pet.earth.name",
            "description": "i18n.katana.pet.menu.hover|!|katana.rare.legendary|!|katana.pet.booster.money-hits-exp-kills|!|katana.text.click-to-upgrade",
            "rare": "LEGENDARY",
            "boosters": [
                "MONEY",
                "HITS",
                "EXP",
                "KILLS"
            ],
            "texture": {
                "type": "SKULL_ITEM",
                "damage": 3,
                "ownerTexture": "eyJ0ZXh0dXJlcyI6eyJTS0lOIjp7InVybCI6Imh0dHA6Ly90ZXh0dXJlcy5taW5lY3JhZnQubmV0L3RleHR1cmUvOGIwZjNhM2Q2ZjBjZTI0Mjc2MzdmZTYwZGE5ZDZkMGZlYjJkOGRmMGJjZmIyNzI5MWJiNzhjNjAwNjBlZmUzZSJ9fX0="
            }
        },
        "OWL": {
            "id": "owl",
            "title": "katana.pet.owl.name",
            "description": "i18n.katana.pet.menu.hover|!|katana.rare.legendary|!|katana.pet.booster.money-hits-exp-kills|!|katana.text.click-to-upgrade",
            "rare": "LEGENDARY",
            "boosters": [
                "MONEY",
                "HITS",
                "EXP",
                "KILLS"
            ],
            "texture": {
                "type": "SKULL_ITEM",
                "damage": 3,
                "ownerTexture": "eyJ0ZXh0dXJlcyI6eyJTS0lOIjp7InVybCI6Imh0dHA6Ly90ZXh0dXJlcy5taW5lY3JhZnQubmV0L3RleHR1cmUvNDNlYzVhOWYxODkxYTU1ZjI5MWQwMjdhM2MxMzMzYjUyMjk1MWUxMTNjNWViZjM1NTcwMDM3NmU3NDYzM2MzNyJ9fX0="
            }
        },
        "CHEST_TREASURES": {
            "id": "chest_treasures",
            "title": "katana.pet.treasures.name",
            "description": "i18n.katana.pet.menu.hover|!|katana.rare.legendary|!|katana.pet.booster.money-hits-exp-kills|!|katana.text.click-to-upgrade",
            "rare": "LEGENDARY",
            "boosters": [
                "MONEY",
                "HITS",
                "EXP",
                "KILLS"
            ],
            "texture": {
                "type": "SKULL_ITEM",
                "damage": 3,
                "ownerTexture": "eyJ0ZXh0dXJlcyI6eyJTS0lOIjp7InVybCI6Imh0dHA6Ly90ZXh0dXJlcy5taW5lY3JhZnQubmV0L3RleHR1cmUvOGNjNzk5NTRkMzUwYTk4YzcyMTcyNTY4MzFmNjVjNjJhNDI4MDc0YjZlNGFlOWVlZGU3YTQ0ZjlkZTRhNyJ9fX0"
            }
        }
    },
    "level": {
        "1": {
            "price": 25000
        },
        "2": {
            "price": 66250
        },
        "3": {
            "price": 134312
        },
        "4": {
            "price": 246616
        },
        "5": {
            "price": 431916
        },
        "6": {
            "price": 737661
        },
        "7": {
            "price": 1242141
        },
        "8": {
            "price": 2074532
        },
        "9": {
            "price": 3447978
        },
        "10": {
            "price": 5714164
        },
        "11": {
            "price": 9453370
        },
        "12": {
            "price": 15623061
        },
        "13": {
            "price": 25803051
        },
        "14": {
            "price": 42600034
        },
        "15": {
            "price": 70315056
        },
        "16": {
            "price": 116044842
        },
        "17": {
            "price": 191498990
        },
        "18": {
            "price": 315998333
        },
        "19": {
            "price": 521422249
        },
        "20": {
            "price": 860371711
        },
        "21": {
            "price": 1419638323
        },
        "22": {
            "price": 2342428233
        },
        "23": {
            "price": 3865031584
        },
        "24": {
            "price": 6377327114
        },
        "25": {
            "price": 10522614738
        },
        "26": {
            "price": 17362339318
        },
        "27": {
            "price": 28647884875
        },
        "28": {
            "price": 47269035043
        },
        "29": {
            "price": 77993932821
        },
        "30": {
            "price": 128690014155
        },
        "31": {
            "price": 212338548356
        },
        "32": {
            "price": 350358629788
        },
        "33": {
            "price": 578091764150
        },
        "34": {
            "price": 953851435848
        },
        "35": {
            "price": 1573854894149
        },
        "36": {
            "price": 2596860600346
        },
        "37": {
            "price": 4284820015570
        },
        "38": {
            "price": 7069953050691
        },
        "39": {
            "price": 11665422558640
        },
        "40": {
            "price": 19247947246757
        },
        "41": {
            "price": 31759112982149
        },
        "42": {
            "price": 52402536445545
        },
        "43": {
            "price": 86464185160150
        },
        "44": {
            "price": 142665905539247
        },
        "45": {
            "price": 235398744164757
        },
        "46": {
            "price": 388407927896849
        },
        "47": {
            "price": 640873081054801
        },
        "48": {
            "price": 1057440583765422
        },
        "49": {
            "price": 1744776963237946
        },
        "50": {
            "price": 2878881989367612
        },
        "51": {
            "price": 4750155282481559
        },
        "52": {
            "price": 7837756216119572
        },
        "53": {
            "price": 12932297756622294
        },
        "54": {
            "price": 21338291298451784
        },
        "55": {
            "price": 35208180642470440
        },
        "56": {
            "price": 58093498060101224
        },
        "57": {
            "price": 102542717991920000
        },
        "58": {
            "price": 158159548468691776
        },
        "59": {
            "price": 260963254973366400
        },
        "60": {
            "price": 430589370706079550
        },
        "61": {
            "price": 710472461665056130
        },
        "62": {
            "price": 1172279561747367680
        },
        "63": {
            "price": 1934261276883181570
        },
        "64": {
            "price": 3191531106857274400
        },
        "65": {
            "price": 5266026326314526700
        },
        "66": {
            "price": 8688943438418993200
        },
        "67": {
            "price": 14336756673391362000
        },
        "68": {
            "price": 23655648511095770000
        },
        "69": {
            "price": 39031820043308050000
        },
        "70": {
            "price": 64402503071458300000
        },
        "71": {
            "price": 106264130067906230000
        },
        "72": {
            "price": 175335814612045300000
        },
        "73": {
            "price": 289304094109874750000
        },
        "74": {
            "price": 477351755281293300000
        },
        "75": {
            "price": 787630396214133900000
        },
        "76": {
            "price": 1299590153753321000000
        },
        "77": {
            "price": 2144323753692979500000
        },
        "78": {
            "price": 3538134193593416000000
        },
        "79": {
            "price": 5837921419429136000000
        },
        "80": {
            "price": 9632570342058075000000
        },
        "81": {
            "price": 15893741064395822000000
        },
        "82": {
            "price": 26224672756253105000000
        },
        "83": {
            "price": 43270710047817620000000
        },
        "84": {
            "price": 71396671578899065000000
        },
        "85": {
            "price": 117804508105183450000000
        },
        "86": {
            "price": 194377438373552680000000
        },
        "87": {
            "price": 320722773316361900000000
        },
        "88": {
            "price": 529192575971997200000000
        },
        "89": {
            "price": 873167750353795300000000
        },
        "90": {
            "price": 1440726788083762000000000
        },
        "91": {
            "price": 2377199200338207400000000
        },
        "92": {
            "price": 3922378680558042000000000
        },
        "93": {
            "price": 6471924822920768000000000
        },
        "94": {
            "price": 10678675957819268000000000
        },
        "95": {
            "price": 17619815330401790000000000
        },
        "96": {
            "price": 29072695295162955000000000
        },
        "97": {
            "price": 47969947237018880000000000
        },
        "98": {
            "price": 79150412941081150000000000
        },
        "99": {
            "price": 130598181352783900000000000
        },
        "100": {
            "price": 215486999232093400000000000
        },
        "101": {
            "price": 426460997696280150000000000
        },
        "102": {
            "price": 531947996928373500000000000
        },
        "103": {
            "price": 637434996160466900000000000
        },
        "104": {
            "price": 742921995392560300000000000
        },
        "105": {
            "price": 848408994624653700000000000
        },
        "106": {
            "price": 953895993856747000000000000
        },
        "107": {
            "price": 1059382993088840400000000000
        },
        "108": {
            "price": 1164869992320933800000000000
        },
        "109": {
            "price": 1270356991553027200000000000
        },
        "110": {
            "price": 1375843990785120700000000000
        },
        "111": {
            "price": 1481330990017214200000000000
        },
        "112": {
            "price": 1586817989249307700000000000
        },
        "113": {
            "price": 1692304988481401200000000000
        },
        "114": {
            "price": 1797791987713494700000000000
        },
        "115": {
            "price": 1903278986945588200000000000
        },
        "116": {
            "price": 2008765986177681700000000000
        },
        "117": {
            "price": 2114252985409775300000000000
        },
        "118": {
            "price": 2219739984641868800000000000
        },
        "119": {
            "price": 2325226983873962300000000000
        },
        "120": {
            "price": 2430713983106055800000000000
        },
        "121": {
            "price": 2536200982338149000000000000
        },
        "122": {
            "price": 2641687981570242600000000000
        },
        "123": {
            "price": 2747174980802336000000000000
        },
        "124": {
            "price": 2852661980034429600000000000
        },
        "125": {
            "price": 2958148979266523000000000000
        },
        "126": {
            "price": 3063635978498616600000000000
        },
        "127": {
            "price": 3169122977730710000000000000
        },
        "128": {
            "price": 3274609976962803600000000000
        },
        "129": {
            "price": 3380096976194897000000000000
        },
        "130": {
            "price": 3485583975426990700000000000
        },
        "131": {
            "price": 3591070974659084000000000000
        },
        "132": {
            "price": 3696557973891177700000000000
        },
        "133": {
            "price": 3802044973123271000000000000
        },
        "134": {
            "price": 3907531972355364700000000000
        },
        "135": {
            "price": 4013018971587458000000000000
        },
        "136": {
            "price": 4118505970819552000000000000
        },
        "137": {
            "price": 4223992970051645000000000000
        },
        "138": {
            "price": 4329479969283739000000000000
        },
        "139": {
            "price": 4434966968515832300000000000
        },
        "140": {
            "price": 4540453967747926000000000000
        },
        "141": {
            "price": 4645940966980019300000000000
        },
        "142": {
            "price": 4751427966212113000000000000
        },
        "143": {
            "price": 4856914965444206300000000000
        },
        "144": {
            "price": 4962401964676299000000000000
        },
        "145": {
            "price": 5067888963908393000000000000
        },
        "146": {
            "price": 5173375963140486000000000000
        },
        "147": {
            "price": 5278862962372580000000000000
        },
        "148": {
            "price": 5384349961604673000000000000
        },
        "149": {
            "price": 5489836960836767000000000000
        },
        "150": {
            "price": 5595323960068860000000000000
        },
        "151": {
            "price": 5700810959300954000000000000
        },
        "152": {
            "price": 5806297958533047000000000000
        },
        "153": {
            "price": 5911784957765141000000000000
        },
        "154": {
            "price": 6017271956997234000000000000
        },
        "155": {
            "price": 6122758956229328000000000000
        },
        "156": {
            "price": 6228245955461421000000000000
        },
        "157": {
            "price": 6333732954693515000000000000
        },
        "158": {
            "price": 6439219953925608000000000000
        },
        "159": {
            "price": 6544706953157702000000000000
        },
        "160": {
            "price": 6650193952389796000000000000
        },
        "161": {
            "price": 6755680951621889000000000000
        },
        "162": {
            "price": 6861167950853983000000000000
        },
        "163": {
            "price": 6966654950086076000000000000
        },
        "164": {
            "price": 7072141949318170000000000000
        },
        "165": {
            "price": 7177628948550263000000000000
        },
        "166": {
            "price": 7283115947782357000000000000
        },
        "167": {
            "price": 7388602947014450000000000000
        },
        "168": {
            "price": 7494089946246544000000000000
        },
        "169": {
            "price": 7599576945478637000000000000
        },
        "170": {
            "price": 7705063944710731000000000000
        },
        "171": {
            "price": 7810550943942824000000000000
        },
        "172": {
            "price": 7916037943174918000000000000
        },
        "173": {
            "price": 8021524942407011000000000000
        },
        "174": {
            "price": 8127011941639105000000000000
        },
        "175": {
            "price": 8232498940871198000000000000
        },
        "176": {
            "price": 8337985940103292000000000000
        },
        "177": {
            "price": 8443472939335385000000000000
        },
        "178": {
            "price": 8548959938567479000000000000
        },
        "179": {
            "price": 8654446937799572000000000000
        },
        "180": {
            "price": 8759933937031666000000000000
        },
        "181": {
            "price": 8865420936263759000000000000
        },
        "182": {
            "price": 8970907935495853000000000000
        },
        "183": {
            "price": 9076394934727946000000000000
        },
        "184": {
            "price": 9181881933960040000000000000
        },
        "185": {
            "price": 9287368933192133000000000000
        },
        "186": {
            "price": 9392855932424227000000000000
        },
        "187": {
            "price": 9498342931656320000000000000
        },
        "188": {
            "price": 9603829930888414000000000000
        },
        "189": {
            "price": 9709316930120507000000000000
        },
        "190": {
            "price": 9814803929352601000000000000
        },
        "191": {
            "price": 9920290928584694000000000000
        },
        "192": {
            "price": 10025777927816788000000000000
        },
        "193": {
            "price": 10131264927048881000000000000
        },
        "194": {
            "price": 10236751926280975000000000000
        },
        "195": {
            "price": 10342238925513068000000000000
        },
        "196": {
            "price": 10447725924745162000000000000
        },
        "197": {
            "price": 10553212923977256000000000000
        },
        "198": {
            "price": 10658699923209350000000000000
        },
        "199": {
            "price": 10764186922441443000000000000
        },
        "200": {
            "price": 10869673921673536000000000000
        },
        "201": {
            "price": 10975160920905630000000000000
        },
        "202": {
            "price": 11080647920137723000000000000
        },
        "203": {
            "price": 11186134919369817000000000000
        },
        "204": {
            "price": 11291621918601910000000000000
        },
        "205": {
            "price": 11397108917834004000000000000
        },
        "206": {
            "price": 11502595917066097000000000000
        },
        "207": {
            "price": 11608082916298190000000000000
        },
        "208": {
            "price": 11713569915530284000000000000
        },
        "209": {
            "price": 11819056914762378000000000000
        },
        "210": {
            "price": 11924543913994471000000000000
        },
        "211": {
            "price": 12030030913226565000000000000
        },
        "212": {
            "price": 12135517912458658000000000000
        },
        "213": {
            "price": 12241004911690752000000000000
        },
        "214": {
            "price": 12346491910922845000000000000
        },
        "215": {
            "price": 12451978910154939000000000000
        },
        "216": {
            "price": 12557465909387032000000000000
        },
        "217": {
            "price": 12662952908619126000000000000
        },
        "218": {
            "price": 12768439907851220000000000000
        },
        "219": {
            "price": 12873926907083313000000000000
        },
        "220": {
            "price": 12979413906315406000000000000
        },
        "221": {
            "price": 13084900905547500000000000000
        },
        "222": {
            "price": 13190387904779593000000000000
        },
        "223": {
            "price": 13295874904011687000000000000
        },
        "224": {
            "price": 13401361903243780000000000000
        },
        "225": {
            "price": 13506848902475874000000000000
        },
        "226": {
            "price": 13612335901707967000000000000
        },
        "227": {
            "price": 13717822900940060000000000000
        },
        "228": {
            "price": 13823309900172154000000000000
        },
        "229": {
            "price": 13928796899404248000000000000
        },
        "230": {
            "price": 14034283898636341000000000000
        },
        "231": {
            "price": 14139770897868435000000000000
        },
        "232": {
            "price": 14245257897100528000000000000
        },
        "233": {
            "price": 14350744896332622000000000000
        },
        "234": {
            "price": 14456231895564716000000000000
        },
        "235": {
            "price": 14561718894796810000000000000
        },
        "236": {
            "price": 14667205894028903000000000000
        },
        "237": {
            "price": 14772692893260996000000000000
        },
        "238": {
            "price": 14878179892493090000000000000
        },
        "239": {
            "price": 14983666891725183000000000000
        },
        "240": {
            "price": 15089153890957277000000000000
        },
        "241": {
            "price": 15194640890189370000000000000
        },
        "242": {
            "price": 15300127889421464000000000000
        },
        "243": {
            "price": 15405614888653557000000000000
        },
        "244": {
            "price": 15511101887885650000000000000
        },
        "245": {
            "price": 15616588887117744000000000000
        },
        "246": {
            "price": 15722075886349838000000000000
        },
        "247": {
            "price": 15827562885581931000000000000
        },
        "248": {
            "price": 15933049884814025000000000000
        },
        "249": {
            "price": 16038536884046118000000000000
        },
        "250": {
            "price": 16144023883278212000000000000
        },
        "251": {
            "price": 16249510882510305000000000000
        },
        "252": {
            "price": 16354997881742399000000000000
        },
        "253": {
            "price": 16460484880974492000000000000
        },
        "254": {
            "price": 16565971880206586000000000000
        },
        "255": {
            "price": 16671458879438680000000000000
        },
        "256": {
            "price": 16776945878670773000000000000
        },
        "257": {
            "price": 16882432877902866000000000000
        },
        "258": {
            "price": 16987919877134960000000000000
        },
        "259": {
            "price": 17093406876367053000000000000
        },
        "260": {
            "price": 17198893875599147000000000000
        },
        "261": {
            "price": 17304380874831240000000000000
        },
        "262": {
            "price": 17409867874063334000000000000
        },
        "263": {
            "price": 17515354873295427000000000000
        },
        "264": {
            "price": 17620841872527520000000000000
        },
        "265": {
            "price": 17726328871759614000000000000
        },
        "266": {
            "price": 17831815870991708000000000000
        },
        "267": {
            "price": 17937302870223801000000000000
        },
        "268": {
            "price": 18042789869455895000000000000
        },
        "269": {
            "price": 18148276868687988000000000000
        },
        "270": {
            "price": 18253763867920082000000000000
        },
        "271": {
            "price": 18359250867152175000000000000
        },
        "272": {
            "price": 18464737866384270000000000000
        },
        "273": {
            "price": 18570224865616363000000000000
        },
        "274": {
            "price": 18675711864848456000000000000
        },
        "275": {
            "price": 18781198864080550000000000000
        },
        "276": {
            "price": 18886685863312643000000000000
        },
        "277": {
            "price": 18992172862544737000000000000
        },
        "278": {
            "price": 19097659861776830000000000000
        },
        "279": {
            "price": 19203146861008924000000000000
        },
        "280": {
            "price": 19308633860241017000000000000
        },
        "281": {
            "price": 19414120859473110000000000000
        },
        "282": {
            "price": 19519607858705204000000000000
        },
        "283": {
            "price": 19625094857937298000000000000
        },
        "284": {
            "price": 19730581857169391000000000000
        },
        "285": {
            "price": 19836068856401482000000000000
        },
        "286": {
            "price": 19941555855633574000000000000
        },
        "287": {
            "price": 20047042854865665000000000000
        },
        "288": {
            "price": 20152529854097756000000000000
        },
        "289": {
            "price": 20258016853329848000000000000
        },
        "290": {
            "price": 20363503852561940000000000000
        },
        "291": {
            "price": 20468990851794030000000000000
        },
        "292": {
            "price": 20574477851026120000000000000
        },
        "293": {
            "price": 20679964850258213000000000000
        },
        "294": {
            "price": 20785451849490304000000000000
        },
        "295": {
            "price": 20890938848722396000000000000
        },
        "296": {
            "price": 20996425847954487000000000000
        },
        "297": {
            "price": 21101912847186580000000000000
        },
        "298": {
            "price": 21207399846418670000000000000
        },
        "299": {
            "price": 21312886845650760000000000000
        },
        "300": {
            "price": 21418373844882852000000000000
        },
        "301": {
            "price": 21523860844114944000000000000
        },
        "302": {
            "price": 21629347843347035000000000000
        },
        "303": {
            "price": 21734834842579126000000000000
        },
        "304": {
            "price": 21840321841811217000000000000
        },
        "305": {
            "price": 21945808841043310000000000000
        },
        "306": {
            "price": 22051295840275400000000000000
        },
        "307": {
            "price": 22156782839507490000000000000
        },
        "308": {
            "price": 22262269838739583000000000000
        },
        "309": {
            "price": 22367756837971674000000000000
        },
        "310": {
            "price": 22473243837203765000000000000
        },
        "311": {
            "price": 22578730836435857000000000000
        },
        "312": {
            "price": 22684217835667950000000000000
        },
        "313": {
            "price": 22789704834900040000000000000
        },
        "314": {
            "price": 22895191834132130000000000000
        },
        "315": {
            "price": 23000678833364220000000000000
        },
        "316": {
            "price": 23106165832596313000000000000
        },
        "317": {
            "price": 23211652831828405000000000000
        },
        "318": {
            "price": 23317139831060496000000000000
        },
        "319": {
            "price": 23422626830292587000000000000
        },
        "320": {
            "price": 23528113829524680000000000000
        },
        "321": {
            "price": 23633600828756770000000000000
        },
        "322": {
            "price": 23739087827988860000000000000
        },
        "323": {
            "price": 23844574827220952000000000000
        },
        "324": {
            "price": 23950061826453044000000000000
        },
        "325": {
            "price": 24055548825685135000000000000
        },
        "326": {
            "price": 24161035824917226000000000000
        },
        "327": {
            "price": 24266522824149318000000000000
        },
        "328": {
            "price": 24372009823381410000000000000
        },
        "329": {
            "price": 24477496822613500000000000000
        },
        "330": {
            "price": 24582983821845590000000000000
        },
        "331": {
            "price": 24688470821077683000000000000
        },
        "332": {
            "price": 24793957820309774000000000000
        },
        "333": {
            "price": 24899444819541866000000000000
        },
        "334": {
            "price": 25004931818773957000000000000
        },
        "335": {
            "price": 25110418818006050000000000000
        },
        "336": {
            "price": 25215905817238140000000000000
        },
        "337": {
            "price": 25321392816470230000000000000
        },
        "338": {
            "price": 25426879815702320000000000000
        },
        "339": {
            "price": 25532366814934413000000000000
        },
        "340": {
            "price": 25637853814166505000000000000
        },
        "341": {
            "price": 25743340813398596000000000000
        },
        "342": {
            "price": 25848827812630687000000000000
        },
        "343": {
            "price": 25954314811862780000000000000
        },
        "344": {
            "price": 26059801811094870000000000000
        },
        "345": {
            "price": 26165288810326960000000000000
        },
        "346": {
            "price": 26270775809559053000000000000
        },
        "347": {
            "price": 26376262808791144000000000000
        },
        "348": {
            "price": 26481749808023235000000000000
        },
        "349": {
            "price": 26587236807255327000000000000
        },
        "350": {
            "price": 26692723806487420000000000000
        },
        "351": {
            "price": 26798210805719510000000000000
        },
        "352": {
            "price": 26903697804951600000000000000
        },
        "353": {
            "price": 27009184804183690000000000000
        },
        "354": {
            "price": 27114671803415783000000000000
        },
        "355": {
            "price": 27220158802647874000000000000
        },
        "356": {
            "price": 27325645801879966000000000000
        },
        "357": {
            "price": 27431132801112057000000000000
        },
        "358": {
            "price": 27536619800344150000000000000
        },
        "359": {
            "price": 27642106799576240000000000000
        },
        "360": {
            "price": 27747593798808330000000000000
        },
        "361": {
            "price": 27853080798040422000000000000
        },
        "362": {
            "price": 27958567797272514000000000000
        },
        "363": {
            "price": 28064054796504605000000000000
        },
        "364": {
            "price": 28169541795736696000000000000
        },
        "365": {
            "price": 28275028794968788000000000000
        },
        "366": {
            "price": 28380515794200880000000000000
        },
        "367": {
            "price": 28486002793432970000000000000
        },
        "368": {
            "price": 28591489792665060000000000000
        },
        "369": {
            "price": 28696976791897153000000000000
        },
        "370": {
            "price": 28802463791129244000000000000
        },
        "371": {
            "price": 28907950790361336000000000000
        },
        "372": {
            "price": 29013437789593427000000000000
        },
        "373": {
            "price": 29118924788825520000000000000
        },
        "374": {
            "price": 29224411788057610000000000000
        },
        "375": {
            "price": 29329898787289700000000000000
        },
        "376": {
            "price": 29435385786521790000000000000
        },
        "377": {
            "price": 29540872785753883000000000000
        },
        "378": {
            "price": 29646359784985975000000000000
        },
        "379": {
            "price": 29751846784218066000000000000
        },
        "380": {
            "price": 29857333783450157000000000000
        },
        "381": {
            "price": 29962820782682250000000000000
        },
        "382": {
            "price": 30068307781914340000000000000
        },
        "383": {
            "price": 30173794781146430000000000000
        },
        "384": {
            "price": 30279281780378523000000000000
        },
        "385": {
            "price": 30384768779610614000000000000
        },
        "386": {
            "price": 30490255778842705000000000000
        },
        "387": {
            "price": 30595742778074797000000000000
        },
        "388": {
            "price": 30701229777306890000000000000
        },
        "389": {
            "price": 30806716776538980000000000000
        },
        "390": {
            "price": 30912203775771070000000000000
        },
        "391": {
            "price": 31017690775003160000000000000
        },
        "392": {
            "price": 31123177774235253000000000000
        },
        "393": {
            "price": 31228664773467344000000000000
        },
        "394": {
            "price": 31334151772699436000000000000
        },
        "395": {
            "price": 31439638771931527000000000000
        },
        "396": {
            "price": 31545125771163620000000000000
        },
        "397": {
            "price": 31650612770395710000000000000
        },
        "398": {
            "price": 31756099769627800000000000000
        },
        "399": {
            "price": 31861586768859892000000000000
        },
        "400": {
            "price": 31967073768091984000000000000
        },
        "401": {
            "price": 32072560767324075000000000000
        },
        "402": {
            "price": 32178047766556166000000000000
        },
        "403": {
            "price": 32283534765788258000000000000
        },
        "404": {
            "price": 32389021765020350000000000000
        },
        "405": {
            "price": 32494508764252440000000000000
        },
        "406": {
            "price": 32599995763484530000000000000
        },
        "407": {
            "price": 32705482762716623000000000000
        },
        "408": {
            "price": 32810969761948714000000000000
        },
        "409": {
            "price": 32916456761180805000000000000
        },
        "410": {
            "price": 33021943760412897000000000000
        },
        "411": {
            "price": 33127430759644990000000000000
        },
        "412": {
            "price": 33232917758877080000000000000
        },
        "413": {
            "price": 33338404758109170000000000000
        },
        "414": {
            "price": 33443891757341260000000000000
        },
        "415": {
            "price": 33549378756573353000000000000
        },
        "416": {
            "price": 33654865755805445000000000000
        },
        "417": {
            "price": 33760352755037536000000000000
        },
        "418": {
            "price": 33865839754269627000000000000
        },
        "419": {
            "price": 33971326753501720000000000000
        },
        "420": {
            "price": 34076813752733810000000000000
        },
        "421": {
            "price": 34182300751965900000000000000
        },
        "422": {
            "price": 34287787751197993000000000000
        },
        "423": {
            "price": 34393274750430084000000000000
        },
        "424": {
            "price": 34498761749662175000000000000
        },
        "425": {
            "price": 34604248748894266000000000000
        },
        "426": {
            "price": 34709735748126360000000000000
        },
        "427": {
            "price": 34815222747358450000000000000
        },
        "428": {
            "price": 34920709746590540000000000000
        },
        "429": {
            "price": 35026196745822630000000000000
        },
        "430": {
            "price": 35131683745054723000000000000
        },
        "431": {
            "price": 35237170744286814000000000000
        },
        "432": {
            "price": 35342657743518906000000000000
        },
        "433": {
            "price": 35448144742750997000000000000
        },
        "434": {
            "price": 35553631741983090000000000000
        },
        "435": {
            "price": 35659118741215180000000000000
        },
        "436": {
            "price": 35764605740447270000000000000
        },
        "437": {
            "price": 35870092739679362000000000000
        },
        "438": {
            "price": 35975579738911454000000000000
        },
        "439": {
            "price": 36081066738143545000000000000
        },
        "440": {
            "price": 36186553737375636000000000000
        },
        "441": {
            "price": 36292040736607728000000000000
        },
        "442": {
            "price": 36397527735839820000000000000
        },
        "443": {
            "price": 36503014735071910000000000000
        },
        "444": {
            "price": 36608501734304000000000000000
        },
        "445": {
            "price": 36713988733536093000000000000
        },
        "446": {
            "price": 36819475732768184000000000000
        },
        "447": {
            "price": 36924962732000275000000000000
        },
        "448": {
            "price": 37030449731232367000000000000
        },
        "449": {
            "price": 37135936730464460000000000000
        },
        "450": {
            "price": 37241423729696550000000000000
        },
        "451": {
            "price": 37346910728928640000000000000
        },
        "452": {
            "price": 37452397728160730000000000000
        },
        "453": {
            "price": 37557884727392823000000000000
        },
        "454": {
            "price": 37663371726624915000000000000
        },
        "455": {
            "price": 37768858725857006000000000000
        },
        "456": {
            "price": 37874345725089097000000000000
        },
        "457": {
            "price": 37979832724321190000000000000
        },
        "458": {
            "price": 38085319723553280000000000000
        },
        "459": {
            "price": 38190806722785370000000000000
        },
        "460": {
            "price": 38296293722017463000000000000
        },
        "461": {
            "price": 38401780721249554000000000000
        },
        "462": {
            "price": 38507267720481645000000000000
        },
        "463": {
            "price": 38612754719713736000000000000
        },
        "464": {
            "price": 38718241718945828000000000000
        },
        "465": {
            "price": 38823728718177920000000000000
        },
        "466": {
            "price": 38929215717410010000000000000
        },
        "467": {
            "price": 39034702716642100000000000000
        },
        "468": {
            "price": 39140189715874193000000000000
        },
        "469": {
            "price": 39245676715106284000000000000
        },
        "470": {
            "price": 39351163714338376000000000000
        },
        "471": {
            "price": 39456650713570467000000000000
        },
        "472": {
            "price": 39562137712802560000000000000
        },
        "473": {
            "price": 39667624712034650000000000000
        },
        "474": {
            "price": 39773111711266740000000000000
        },
        "475": {
            "price": 39878598710498830000000000000
        },
        "476": {
            "price": 39984085709730920000000000000
        },
        "477": {
            "price": 40089572708963015000000000000
        },
        "478": {
            "price": 40195059708195110000000000000
        },
        "479": {
            "price": 40300546707427200000000000000
        },
        "480": {
            "price": 40406033706659290000000000000
        },
        "481": {
            "price": 40511520705891380000000000000
        },
        "482": {
            "price": 40617007705123470000000000000
        },
        "483": {
            "price": 40722494704355560000000000000
        },
        "484": {
            "price": 40827981703587650000000000000
        },
        "485": {
            "price": 40933468702819745000000000000
        },
        "486": {
            "price": 41038955702051840000000000000
        },
        "487": {
            "price": 41144442701283930000000000000
        },
        "488": {
            "price": 41249929700516020000000000000
        },
        "489": {
            "price": 41355416699748110000000000000
        },
        "490": {
            "price": 41460903698980200000000000000
        },
        "491": {
            "price": 41566390698212290000000000000
        },
        "492": {
            "price": 41671877697444385000000000000
        },
        "493": {
            "price": 41777364696676480000000000000
        },
        "494": {
            "price": 41882851695908570000000000000
        },
        "495": {
            "price": 41988338695140660000000000000
        },
        "496": {
            "price": 42093825694372750000000000000
        },
        "497": {
            "price": 42199312693604840000000000000
        },
        "498": {
            "price": 42304799692836930000000000000
        },
        "499": {
            "price": 42410286692069020000000000000
        },
        "500": {
            "price": 42515773691301115000000000000
        },
        "501": {
            "price": 45031547382602230000000000000
        },
        "502": {
            "price": 47547321073903350000000000000
        },
        "503": {
            "price": 50063094765204465000000000000
        },
        "504": {
            "price": 52578868456505580000000000000
        },
        "505": {
            "price": 55094642147806700000000000000
        },
        "506": {
            "price": 57610415839107816000000000000
        },
        "507": {
            "price": 60126189530408930000000000000
        },
        "508": {
            "price": 62641963221710050000000000000
        },
        "509": {
            "price": 65157736913011170000000000000
        },
        "510": {
            "price": 67673510604312280000000000000
        },
        "511": {
            "price": 70189284295613400000000000000
        },
        "512": {
            "price": 72705057986914520000000000000
        },
        "513": {
            "price": 75220831678215630000000000000
        },
        "514": {
            "price": 77736605369516750000000000000
        },
        "515": {
            "price": 80252379060817860000000000000
        },
        "516": {
            "price": 82768152752118970000000000000
        },
        "517": {
            "price": 85283926443420070000000000000
        },
        "518": {
            "price": 87799700134721180000000000000
        },
        "519": {
            "price": 90315473826022290000000000000
        },
        "520": {
            "price": 92831247517323400000000000000
        },
        "521": {
            "price": 95347021208624500000000000000
        },
        "522": {
            "price": 97862794899925610000000000000
        },
        "523": {
            "price": 100378568591226720000000000000
        },
        "524": {
            "price": 102894342282527830000000000000
        },
        "525": {
            "price": 105410115973828940000000000000
        },
        "526": {
            "price": 107925889665130040000000000000
        },
        "527": {
            "price": 110441663356431150000000000000
        },
        "528": {
            "price": 112957437047732260000000000000
        },
        "529": {
            "price": 115473210739033370000000000000
        },
        "530": {
            "price": 117988984430334480000000000000
        },
        "531": {
            "price": 120504758121635580000000000000
        },
        "532": {
            "price": 123020531812936700000000000000
        },
        "533": {
            "price": 125536305504237800000000000000
        },
        "534": {
            "price": 128052079195538900000000000000
        },
        "535": {
            "price": 130567852886840020000000000000
        },
        "536": {
            "price": 133083626578141120000000000000
        },
        "537": {
            "price": 135599400269442230000000000000
        },
        "538": {
            "price": 138115173960743340000000000000
        },
        "539": {
            "price": 140630947652044450000000000000
        },
        "540": {
            "price": 143146721343345560000000000000
        },
        "541": {
            "price": 145662495034646660000000000000
        },
        "542": {
            "price": 148178268725947770000000000000
        },
        "543": {
            "price": 150694042417248880000000000000
        },
        "544": {
            "price": 153209816108549990000000000000
        },
        "545": {
            "price": 155725589799851100000000000000
        },
        "546": {
            "price": 158241363491152200000000000000
        },
        "547": {
            "price": 160757137182453300000000000000
        },
        "548": {
            "price": 163272910873754420000000000000
        },
        "549": {
            "price": 165788684565055530000000000000
        },
        "550": {
            "price": 168304458256356640000000000000
        },
        "551": {
            "price": 170820231947657740000000000000
        },
        "552": {
            "price": 173336005638958850000000000000
        },
        "553": {
            "price": 175851779330259960000000000000
        },
        "554": {
            "price": 178367553021561070000000000000
        },
        "555": {
            "price": 180883326712862180000000000000
        },
        "556": {
            "price": 183399100404163300000000000000
        },
        "557": {
            "price": 185914874095464400000000000000
        },
        "558": {
            "price": 188430647786765500000000000000
        },
        "559": {
            "price": 190946421478066600000000000000
        },
        "560": {
            "price": 193462195169367700000000000000
        },
        "561": {
            "price": 195977968860668820000000000000
        },
        "562": {
            "price": 198493742551969930000000000000
        },
        "563": {
            "price": 201009516243271040000000000000
        },
        "564": {
            "price": 203525289934572150000000000000
        },
        "565": {
            "price": 206041063625873250000000000000
        },
        "566": {
            "price": 208556837317174360000000000000
        },
        "567": {
            "price": 211072611008475470000000000000
        },
        "568": {
            "price": 213588384699776580000000000000
        },
        "569": {
            "price": 216104158391077700000000000000
        },
        "570": {
            "price": 218619932082378800000000000000
        },
        "571": {
            "price": 221135705773679900000000000000
        },
        "572": {
            "price": 223651479464981000000000000000
        },
        "573": {
            "price": 226167253156282120000000000000
        },
        "574": {
            "price": 228683026847583230000000000000
        },
        "575": {
            "price": 231198800538884330000000000000
        },
        "576": {
            "price": 233714574230185440000000000000
        },
        "577": {
            "price": 236230347921486550000000000000
        },
        "578": {
            "price": 238746121612787660000000000000
        },
        "579": {
            "price": 241261895304088770000000000000
        },
        "580": {
            "price": 243777668995389870000000000000
        },
        "581": {
            "price": 246293442686690980000000000000
        },
        "582": {
            "price": 248809216377992100000000000000
        },
        "583": {
            "price": 251324990069293200000000000000
        },
        "584": {
            "price": 253840763760594300000000000000
        },
        "585": {
            "price": 256356537451895400000000000000
        },
        "586": {
            "price": 258872311143196520000000000000
        },
        "587": {
            "price": 261388084834497630000000000000
        },
        "588": {
            "price": 263903858525798740000000000000
        },
        "589": {
            "price": 266419632217099850000000000000
        },
        "590": {
            "price": 268935405908400950000000000000
        },
        "591": {
            "price": 271451179599702060000000000000
        },
        "592": {
            "price": 273966953291003170000000000000
        },
        "593": {
            "price": 276482726982304280000000000000
        },
        "594": {
            "price": 278998500673605400000000000000
        },
        "595": {
            "price": 281514274364906500000000000000
        },
        "596": {
            "price": 284030048056207600000000000000
        },
        "597": {
            "price": 286545821747508700000000000000
        },
        "598": {
            "price": 289061595438809800000000000000
        },
        "599": {
            "price": 291577369130110930000000000000
        },
        "600": {
            "price": 294093142821412030000000000000
        },
        "601": {
            "price": 296608916512713140000000000000
        },
        "602": {
            "price": 299124690204014250000000000000
        },
        "603": {
            "price": 301640463895315360000000000000
        },
        "604": {
            "price": 304156237586616460000000000000
        },
        "605": {
            "price": 306672011277917570000000000000
        },
        "606": {
            "price": 309187784969218680000000000000
        },
        "607": {
            "price": 311703558660519800000000000000
        },
        "608": {
            "price": 314219332351820900000000000000
        },
        "609": {
            "price": 316735106043122000000000000000
        },
        "610": {
            "price": 319250879734423150000000000000
        },
        "611": {
            "price": 321766653425724300000000000000
        },
        "612": {
            "price": 324282427117025400000000000000
        },
        "613": {
            "price": 326798200808326600000000000000
        },
        "614": {
            "price": 329313974499627700000000000000
        },
        "615": {
            "price": 331829748190928860000000000000
        },
        "616": {
            "price": 334345521882230000000000000000
        },
        "617": {
            "price": 336861295573531150000000000000
        },
        "618": {
            "price": 339377069264832300000000000000
        },
        "619": {
            "price": 341892842956133440000000000000
        },
        "620": {
            "price": 344408616647434600000000000000
        },
        "621": {
            "price": 346924390338735700000000000000
        },
        "622": {
            "price": 349440164030036900000000000000
        },
        "623": {
            "price": 351955937721338000000000000000
        },
        "624": {
            "price": 354471711412639150000000000000
        },
        "625": {
            "price": 356987485103940300000000000000
        },
        "626": {
            "price": 359503258795241440000000000000
        },
        "627": {
            "price": 362019032486542600000000000000
        },
        "628": {
            "price": 364534806177843700000000000000
        },
        "629": {
            "price": 367050579869144900000000000000
        },
        "630": {
            "price": 369566353560446000000000000000
        },
        "631": {
            "price": 372082127251747150000000000000
        },
        "632": {
            "price": 374597900943048300000000000000
        },
        "633": {
            "price": 377113674634349440000000000000
        },
        "634": {
            "price": 379629448325650600000000000000
        },
        "635": {
            "price": 382145222016951700000000000000
        },
        "636": {
            "price": 384660995708252900000000000000
        },
        "637": {
            "price": 387176769399554000000000000000
        },
        "638": {
            "price": 389692543090855160000000000000
        },
        "639": {
            "price": 392208316782156300000000000000
        },
        "640": {
            "price": 394724090473457440000000000000
        },
        "641": {
            "price": 397239864164758600000000000000
        },
        "642": {
            "price": 399755637856059700000000000000
        },
        "643": {
            "price": 402271411547360900000000000000
        },
        "644": {
            "price": 404787185238662000000000000000
        },
        "645": {
            "price": 407302958929963160000000000000
        },
        "646": {
            "price": 409818732621264300000000000000
        },
        "647": {
            "price": 412334506312565440000000000000
        },
        "648": {
            "price": 414850280003866600000000000000
        },
        "649": {
            "price": 417366053695167700000000000000
        },
        "650": {
            "price": 419881827386468900000000000000
        },
        "651": {
            "price": 422397601077770000000000000000
        },
        "652": {
            "price": 424913374769071160000000000000
        },
        "653": {
            "price": 427429148460372300000000000000
        },
        "654": {
            "price": 429944922151673450000000000000
        },
        "655": {
            "price": 432460695842974600000000000000
        },
        "656": {
            "price": 434976469534275700000000000000
        },
        "657": {
            "price": 437492243225576900000000000000
        },
        "658": {
            "price": 440008016916878000000000000000
        },
        "659": {
            "price": 442523790608179160000000000000
        },
        "660": {
            "price": 445039564299480300000000000000
        },
        "661": {
            "price": 447555337990781450000000000000
        },
        "662": {
            "price": 450071111682082600000000000000
        },
        "663": {
            "price": 452586885373383700000000000000
        },
        "664": {
            "price": 455102659064684900000000000000
        },
        "665": {
            "price": 457618432755986000000000000000
        },
        "666": {
            "price": 460134206447287160000000000000
        },
        "667": {
            "price": 462649980138588300000000000000
        },
        "668": {
            "price": 465165753829889450000000000000
        },
        "669": {
            "price": 467681527521190600000000000000
        },
        "670": {
            "price": 470197301212491740000000000000
        },
        "671": {
            "price": 472713074903792900000000000000
        },
        "672": {
            "price": 475228848595094000000000000000
        },
        "673": {
            "price": 477744622286395200000000000000
        },
        "674": {
            "price": 480260395977696300000000000000
        },
        "675": {
            "price": 482776169668997450000000000000
        },
        "676": {
            "price": 485291943360298600000000000000
        },
        "677": {
            "price": 487807717051599740000000000000
        },
        "678": {
            "price": 490323490742900900000000000000
        },
        "679": {
            "price": 492839264434202000000000000000
        },
        "680": {
            "price": 495355038125503200000000000000
        },
        "681": {
            "price": 497870811816804300000000000000
        },
        "682": {
            "price": 500386585508105450000000000000
        },
        "683": {
            "price": 502902359199406600000000000000
        },
        "684": {
            "price": 505418132890707740000000000000
        },
        "685": {
            "price": 507933906582008900000000000000
        },
        "686": {
            "price": 510449680273310000000000000000
        },
        "687": {
            "price": 512965453964611200000000000000
        },
        "688": {
            "price": 515481227655912300000000000000
        },
        "689": {
            "price": 517997001347213460000000000000
        },
        "690": {
            "price": 520512775038514600000000000000
        },
        "691": {
            "price": 523028548729815740000000000000
        },
        "692": {
            "price": 525544322421116900000000000000
        },
        "693": {
            "price": 528060096112418000000000000000
        },
        "694": {
            "price": 530575869803719200000000000000
        },
        "695": {
            "price": 533091643495020300000000000000
        },
        "696": {
            "price": 535607417186321460000000000000
        },
        "697": {
            "price": 538123190877622600000000000000
        },
        "698": {
            "price": 540638964568923740000000000000
        },
        "699": {
            "price": 543154738260224900000000000000
        },
        "700": {
            "price": 545670511951526000000000000000
        },
        "701": {
            "price": 548186285642827200000000000000
        },
        "702": {
            "price": 550702059334128300000000000000
        },
        "703": {
            "price": 553217833025429460000000000000
        },
        "704": {
            "price": 555733606716730600000000000000
        },
        "705": {
            "price": 558249380408031750000000000000
        },
        "706": {
            "price": 560765154099332900000000000000
        },
        "707": {
            "price": 563280927790634000000000000000
        },
        "708": {
            "price": 565796701481935200000000000000
        },
        "709": {
            "price": 568312475173236300000000000000
        },
        "710": {
            "price": 570828248864537460000000000000
        },
        "711": {
            "price": 573344022555838600000000000000
        },
        "712": {
            "price": 575859796247139750000000000000
        },
        "713": {
            "price": 578375569938440900000000000000
        },
        "714": {
            "price": 580891343629742000000000000000
        },
        "715": {
            "price": 583407117321043200000000000000
        },
        "716": {
            "price": 585922891012344300000000000000
        },
        "717": {
            "price": 588438664703645460000000000000
        },
        "718": {
            "price": 590954438394946600000000000000
        },
        "719": {
            "price": 593470212086247750000000000000
        },
        "720": {
            "price": 595985985777548900000000000000
        },
        "721": {
            "price": 598501759468850040000000000000
        },
        "722": {
            "price": 601017533160151200000000000000
        },
        "723": {
            "price": 603533306851452300000000000000
        },
        "724": {
            "price": 606049080542753460000000000000
        },
        "725": {
            "price": 608564854234054600000000000000
        },
        "726": {
            "price": 611080627925355750000000000000
        },
        "727": {
            "price": 613596401616656900000000000000
        },
        "728": {
            "price": 616112175307958040000000000000
        },
        "729": {
            "price": 618627948999259200000000000000
        },
        "730": {
            "price": 621143722690560300000000000000
        },
        "731": {
            "price": 623659496381861500000000000000
        },
        "732": {
            "price": 626175270073162600000000000000
        },
        "733": {
            "price": 628691043764463750000000000000
        },
        "734": {
            "price": 631206817455764900000000000000
        },
        "735": {
            "price": 633722591147066040000000000000
        },
        "736": {
            "price": 636238364838367100000000000000
        },
        "737": {
            "price": 638754138529668300000000000000
        },
        "738": {
            "price": 641269912220969400000000000000
        },
        "739": {
            "price": 643785685912270500000000000000
        },
        "740": {
            "price": 646301459603571700000000000000
        },
        "741": {
            "price": 648817233294872800000000000000
        },
        "742": {
            "price": 651333006986174000000000000000
        },
        "743": {
            "price": 653848780677475100000000000000
        },
        "744": {
            "price": 656364554368776300000000000000
        },
        "745": {
            "price": 658880328060077400000000000000
        },
        "746": {
            "price": 661396101751378500000000000000
        },
        "747": {
            "price": 663911875442679700000000000000
        },
        "748": {
            "price": 666427649133980800000000000000
        },
        "749": {
            "price": 668943422825282000000000000000
        },
        "750": {
            "price": 671459196516583100000000000000
        },
        "751": {
            "price": 673974970207884300000000000000
        },
        "752": {
            "price": 676490743899185400000000000000
        },
        "753": {
            "price": 679006517590486500000000000000
        },
        "754": {
            "price": 681522291281787700000000000000
        },
        "755": {
            "price": 684038064973088800000000000000
        },
        "756": {
            "price": 686553838664390000000000000000
        },
        "757": {
            "price": 689069612355691100000000000000
        },
        "758": {
            "price": 691585386046992300000000000000
        },
        "759": {
            "price": 694101159738293400000000000000
        },
        "760": {
            "price": 696616933429594500000000000000
        },
        "761": {
            "price": 699132707120895700000000000000
        },
        "762": {
            "price": 701648480812196800000000000000
        },
        "763": {
            "price": 704164254503498000000000000000
        },
        "764": {
            "price": 706680028194799100000000000000
        },
        "765": {
            "price": 709195801886100300000000000000
        },
        "766": {
            "price": 711711575577401400000000000000
        },
        "767": {
            "price": 714227349268702500000000000000
        },
        "768": {
            "price": 716743122960003700000000000000
        },
        "769": {
            "price": 719258896651304800000000000000
        },
        "770": {
            "price": 721774670342606000000000000000
        },
        "771": {
            "price": 724290444033907100000000000000
        },
        "772": {
            "price": 726806217725208300000000000000
        },
        "773": {
            "price": 729321991416509400000000000000
        },
        "774": {
            "price": 731837765107810600000000000000
        },
        "775": {
            "price": 734353538799111700000000000000
        },
        "776": {
            "price": 736869312490412800000000000000
        },
        "777": {
            "price": 739385086181714000000000000000
        },
        "778": {
            "price": 741900859873015100000000000000
        },
        "779": {
            "price": 744416633564316300000000000000
        },
        "780": {
            "price": 746932407255617400000000000000
        },
        "781": {
            "price": 749448180946918600000000000000
        },
        "782": {
            "price": 751963954638219700000000000000
        },
        "783": {
            "price": 754479728329520800000000000000
        },
        "784": {
            "price": 756995502020822000000000000000
        },
        "785": {
            "price": 759511275712123100000000000000
        },
        "786": {
            "price": 762027049403424300000000000000
        },
        "787": {
            "price": 764542823094725400000000000000
        },
        "788": {
            "price": 767058596786026600000000000000
        },
        "789": {
            "price": 769574370477327700000000000000
        },
        "790": {
            "price": 772090144168628800000000000000
        },
        "791": {
            "price": 774605917859930000000000000000
        },
        "792": {
            "price": 777121691551231100000000000000
        },
        "793": {
            "price": 779637465242532300000000000000
        },
        "794": {
            "price": 782153238933833400000000000000
        },
        "795": {
            "price": 784669012625134600000000000000
        },
        "796": {
            "price": 787184786316435700000000000000
        },
        "797": {
            "price": 789700560007736800000000000000
        },
        "798": {
            "price": 792216333699038000000000000000
        },
        "799": {
            "price": 794732107390339100000000000000
        },
        "800": {
            "price": 797247881081640300000000000000
        },
        "801": {
            "price": 799763654772941400000000000000
        },
        "802": {
            "price": 802279428464242600000000000000
        },
        "803": {
            "price": 804795202155543700000000000000
        },
        "804": {
            "price": 807310975846844800000000000000
        },
        "805": {
            "price": 809826749538146000000000000000
        },
        "806": {
            "price": 812342523229447100000000000000
        },
        "807": {
            "price": 814858296920748300000000000000
        },
        "808": {
            "price": 817374070612049400000000000000
        },
        "809": {
            "price": 819889844303350600000000000000
        },
        "810": {
            "price": 822405617994651700000000000000
        },
        "811": {
            "price": 824921391685952800000000000000
        },
        "812": {
            "price": 827437165377254000000000000000
        },
        "813": {
            "price": 829952939068555100000000000000
        },
        "814": {
            "price": 832468712759856300000000000000
        },
        "815": {
            "price": 834984486451157400000000000000
        },
        "816": {
            "price": 837500260142458600000000000000
        },
        "817": {
            "price": 840016033833759700000000000000
        },
        "818": {
            "price": 842531807525060800000000000000
        },
        "819": {
            "price": 845047581216362000000000000000
        },
        "820": {
            "price": 847563354907663100000000000000
        },
        "821": {
            "price": 850079128598964300000000000000
        },
        "822": {
            "price": 852594902290265400000000000000
        },
        "823": {
            "price": 855110675981566600000000000000
        },
        "824": {
            "price": 857626449672867700000000000000
        },
        "825": {
            "price": 860142223364168900000000000000
        },
        "826": {
            "price": 862657997055470000000000000000
        },
        "827": {
            "price": 865173770746771100000000000000
        },
        "828": {
            "price": 867689544438072300000000000000
        },
        "829": {
            "price": 870205318129373400000000000000
        },
        "830": {
            "price": 872721091820674600000000000000
        },
        "831": {
            "price": 875236865511975700000000000000
        },
        "832": {
            "price": 877752639203276900000000000000
        },
        "833": {
            "price": 880268412894578000000000000000
        },
        "834": {
            "price": 882784186585879100000000000000
        },
        "835": {
            "price": 885299960277180300000000000000
        },
        "836": {
            "price": 887815733968481400000000000000
        },
        "837": {
            "price": 890331507659782600000000000000
        },
        "838": {
            "price": 892847281351083700000000000000
        },
        "839": {
            "price": 895363055042384900000000000000
        },
        "840": {
            "price": 897878828733686000000000000000
        },
        "841": {
            "price": 900394602424987100000000000000
        },
        "842": {
            "price": 902910376116288300000000000000
        },
        "843": {
            "price": 905426149807589400000000000000
        },
        "844": {
            "price": 907941923498890600000000000000
        },
        "845": {
            "price": 910457697190191700000000000000
        },
        "846": {
            "price": 912973470881492900000000000000
        },
        "847": {
            "price": 915489244572794000000000000000
        },
        "848": {
            "price": 918005018264095100000000000000
        },
        "849": {
            "price": 920520791955396300000000000000
        },
        "850": {
            "price": 923036565646697400000000000000
        },
        "851": {
            "price": 925552339337998600000000000000
        },
        "852": {
            "price": 928068113029299700000000000000
        },
        "853": {
            "price": 930583886720600900000000000000
        },
        "854": {
            "price": 933099660411902000000000000000
        },
        "855": {
            "price": 935615434103203100000000000000
        },
        "856": {
            "price": 938131207794504300000000000000
        },
        "857": {
            "price": 940646981485805400000000000000
        },
        "858": {
            "price": 943162755177106600000000000000
        },
        "859": {
            "price": 945678528868407700000000000000
        },
        "860": {
            "price": 948194302559708900000000000000
        },
        "861": {
            "price": 950710076251010000000000000000
        },
        "862": {
            "price": 953225849942311100000000000000
        },
        "863": {
            "price": 955741623633612300000000000000
        },
        "864": {
            "price": 958257397324913400000000000000
        },
        "865": {
            "price": 960773171016214600000000000000
        },
        "866": {
            "price": 963288944707515700000000000000
        },
        "867": {
            "price": 965804718398816900000000000000
        },
        "868": {
            "price": 968320492090118000000000000000
        },
        "869": {
            "price": 970836265781419100000000000000
        },
        "870": {
            "price": 973352039472720300000000000000
        },
        "871": {
            "price": 975867813164021400000000000000
        },
        "872": {
            "price": 978383586855322600000000000000
        },
        "873": {
            "price": 980899360546623700000000000000
        },
        "874": {
            "price": 983415134237924900000000000000
        },
        "875": {
            "price": 985930907929226000000000000000
        },
        "876": {
            "price": 988446681620527200000000000000
        },
        "877": {
            "price": 990962455311828300000000000000
        },
        "878": {
            "price": 993478229003129400000000000000
        },
        "879": {
            "price": 995994002694430600000000000000
        },
        "880": {
            "price": 998509776385731700000000000000
        },
        "881": {
            "price": 1001025550077032900000000000000
        },
        "882": {
            "price": 1003541323768334000000000000000
        },
        "883": {
            "price": 1006057097459635200000000000000
        },
        "884": {
            "price": 1008572871150936300000000000000
        },
        "885": {
            "price": 1011088644842237400000000000000
        },
        "886": {
            "price": 1013604418533538600000000000000
        },
        "887": {
            "price": 1016120192224839700000000000000
        },
        "888": {
            "price": 1018635965916140900000000000000
        },
        "889": {
            "price": 1021151739607442000000000000000
        },
        "890": {
            "price": 1023667513298743200000000000000
        },
        "891": {
            "price": 1026183286990044300000000000000
        },
        "892": {
            "price": 1028699060681345400000000000000
        },
        "893": {
            "price": 1031214834372646600000000000000
        },
        "894": {
            "price": 1033730608063947700000000000000
        },
        "895": {
            "price": 1036246381755248900000000000000
        },
        "896": {
            "price": 1038762155446550000000000000000
        },
        "897": {
            "price": 1041277929137851200000000000000
        },
        "898": {
            "price": 1043793702829152300000000000000
        },
        "899": {
            "price": 1046309476520453400000000000000
        },
        "900": {
            "price": 1048825250211754600000000000000
        },
        "901": {
            "price": 1051341023903055700000000000000
        },
        "902": {
            "price": 1053856797594356900000000000000
        },
        "903": {
            "price": 1056372571285658000000000000000
        },
        "904": {
            "price": 1058888344976959200000000000000
        },
        "905": {
            "price": 1061404118668260300000000000000
        },
        "906": {
            "price": 1063919892359561400000000000000
        },
        "907": {
            "price": 1066435666050862600000000000000
        },
        "908": {
            "price": 1068951439742163700000000000000
        },
        "909": {
            "price": 1071467213433464900000000000000
        },
        "910": {
            "price": 1073982987124766000000000000000
        },
        "911": {
            "price": 1076498760816067200000000000000
        },
        "912": {
            "price": 1079014534507368300000000000000
        },
        "913": {
            "price": 1081530308198669400000000000000
        },
        "914": {
            "price": 1084046081889970600000000000000
        },
        "915": {
            "price": 1086561855581271700000000000000
        },
        "916": {
            "price": 1089077629272572900000000000000
        },
        "917": {
            "price": 1091593402963874000000000000000
        },
        "918": {
            "price": 1094109176655175200000000000000
        },
        "919": {
            "price": 1096624950346476300000000000000
        },
        "920": {
            "price": 1099140724037777400000000000000
        },
        "921": {
            "price": 1101656497729078600000000000000
        },
        "922": {
            "price": 1104172271420379700000000000000
        },
        "923": {
            "price": 1106688045111680900000000000000
        },
        "924": {
            "price": 1109203818802982000000000000000
        },
        "925": {
            "price": 1111719592494283200000000000000
        },
        "926": {
            "price": 1114235366185584300000000000000
        },
        "927": {
            "price": 1116751139876885500000000000000
        },
        "928": {
            "price": 1119266913568186600000000000000
        },
        "929": {
            "price": 1121782687259487700000000000000
        },
        "930": {
            "price": 1124298460950788900000000000000
        },
        "931": {
            "price": 1126814234642090000000000000000
        },
        "932": {
            "price": 1129330008333391200000000000000
        },
        "933": {
            "price": 1131845782024692300000000000000
        },
        "934": {
            "price": 1134361555715993500000000000000
        },
        "935": {
            "price": 1136877329407294600000000000000
        },
        "936": {
            "price": 1139393103098595700000000000000
        },
        "937": {
            "price": 1141908876789896900000000000000
        },
        "938": {
            "price": 1144424650481198000000000000000
        },
        "939": {
            "price": 1146940424172499200000000000000
        },
        "940": {
            "price": 1149456197863800300000000000000
        },
        "941": {
            "price": 1151971971555101500000000000000
        },
        "942": {
            "price": 1154487745246402600000000000000
        },
        "943": {
            "price": 1157003518937703700000000000000
        },
        "944": {
            "price": 1159519292629004900000000000000
        },
        "945": {
            "price": 1162035066320306000000000000000
        },
        "946": {
            "price": 1164550840011607200000000000000
        },
        "947": {
            "price": 1167066613702908300000000000000
        },
        "948": {
            "price": 1169582387394209500000000000000
        },
        "949": {
            "price": 1172098161085510600000000000000
        },
        "950": {
            "price": 1174613934776811700000000000000
        },
        "951": {
            "price": 1177129708468112900000000000000
        },
        "952": {
            "price": 1179645482159414000000000000000
        },
        "953": {
            "price": 1182161255850715200000000000000
        },
        "954": {
            "price": 1184677029542016300000000000000
        },
        "955": {
            "price": 1187192803233317500000000000000
        },
        "956": {
            "price": 1189708576924618600000000000000
        },
        "957": {
            "price": 1192224350615919700000000000000
        },
        "958": {
            "price": 1194740124307220900000000000000
        },
        "959": {
            "price": 1197255897998522000000000000000
        },
        "960": {
            "price": 1199771671689823200000000000000
        },
        "961": {
            "price": 1202287445381124300000000000000
        },
        "962": {
            "price": 1204803219072425500000000000000
        },
        "963": {
            "price": 1207318992763726600000000000000
        },
        "964": {
            "price": 1209834766455027700000000000000
        },
        "965": {
            "price": 1212350540146328900000000000000
        },
        "966": {
            "price": 1214866313837630000000000000000
        },
        "967": {
            "price": 1217382087528931200000000000000
        },
        "968": {
            "price": 1219897861220232300000000000000
        },
        "969": {
            "price": 1222413634911533500000000000000
        },
        "970": {
            "price": 1224929408602834600000000000000
        },
        "971": {
            "price": 1227445182294135700000000000000
        },
        "972": {
            "price": 1229960955985436900000000000000
        },
        "973": {
            "price": 1232476729676738000000000000000
        },
        "974": {
            "price": 1234992503368039200000000000000
        },
        "975": {
            "price": 1237508277059340300000000000000
        },
        "976": {
            "price": 1240024050750641500000000000000
        },
        "977": {
            "price": 1242539824441942600000000000000
        },
        "978": {
            "price": 1245055598133243700000000000000
        },
        "979": {
            "price": 1247571371824544900000000000000
        },
        "980": {
            "price": 1250087145515846000000000000000
        },
        "981": {
            "price": 1252602919207147200000000000000
        },
        "982": {
            "price": 1255118692898448300000000000000
        },
        "983": {
            "price": 1257634466589749500000000000000
        },
        "984": {
            "price": 1260150240281050600000000000000
        },
        "985": {
            "price": 1262666013972351800000000000000
        },
        "986": {
            "price": 1265181787663652900000000000000
        },
        "987": {
            "price": 1267697561354954000000000000000
        },
        "988": {
            "price": 1270213335046255000000000000000
        },
        "989": {
            "price": 1272729108737556200000000000000
        },
        "990": {
            "price": 1275244882428857300000000000000
        },
        "991": {
            "price": 1277760656120158500000000000000
        },
        "992": {
            "price": 1280276429811459600000000000000
        },
        "993": {
            "price": 1282792203502760800000000000000
        },
        "994": {
            "price": 1285307977194062000000000000000
        },
        "995": {
            "price": 1287823750885363000000000000000
        },
        "996": {
            "price": 1290339524576664200000000000000
        },
        "997": {
            "price": 1292855298267965300000000000000
        },
        "998": {
            "price": 1295371071959266500000000000000
        },
        "999": {
            "price": 1297886845650567600000000000000
        },
        "1000": {
            "price": 1300402619341868800000000000000
        },
        "1001": {
            "price": 1302918393033170000000000000000
        }
    }
}