{
  "menu": {
    "command": "titles",
    "title": "katana.titles.menu.title",
    "description": "katana.titles.menu.description"
  },
  "notExistButton": {
    "title": "katana.titles.not-exist-button.title",
    "hover": "katana.titles.not-exist-button.hover",
    "item": {
      "type": "CLAY_BALL",
      "data": {
        "other": "lock",
        "color": 16735067
      }
    }
  },
  "text": {
    "wearHover": "katana.titles.text.hover.wear",
    "notWearHover": "katana.titles.text.hover.not-wear",
    "max": "katana.titles.text.max",
    "wear": "katana.titles.text.wear",
    "takeWear": "katana.titles.text.take-wear"
  },
  "titles": {
    "MAGE": {
      "menuTitle": "katana.titles.mage.name",
      "title": "katana.titles.mage.name",
      "description": "i18n.katana.titles.description|!|katana.rare.common|!|katana.titles.ability.none",
      "texture": {
        "type": "CLAY_BALL",
        "data": {
          "other": "cup"
        }
      },
      "rare": "COMMON",
      "notification": ""
    },
    "DRAGON": {
      "menuTitle": "katana.titles.dragon.name",
      "title": "katana.titles.dragon.name",
      "description": "i18n.katana.titles.description|!|katana.rare.common|!|katana.titles.ability.none",
      "texture": {
        "type": "CLAY_BALL",
        "data": {
          "other": "cup"
        }
      },
      "rare": "COMMON",
      "notification": ""
    },
    "LORD": {
      "menuTitle": "katana.titles.lord.name",
      "title": "katana.titles.lord.name",
      "description": "i18n.katana.titles.description|!|katana.rare.common|!|katana.titles.ability.none",
      "texture": {
        "type": "CLAY_BALL",
        "data": {
          "other": "cup"
        }
      },
      "rare": "COMMON",
      "notification": ""
    },
    "SNIPER": {
      "menuTitle": "katana.titles.sniper.name",
      "title": "katana.titles.sniper.name",
      "description": "i18n.katana.titles.description|!|katana.rare.common|!|katana.titles.ability.none",
      "texture": {
        "type": "CLAY_BALL",
        "data": {
          "other": "cup"
        }
      },
      "rare": "COMMON",
      "notification": ""
    },
    "SAMURAI": {
      "menuTitle": "katana.titles.samurai.name",
      "title": "katana.titles.samurai.name",
      "description": "i18n.katana.titles.description|!|katana.rare.common|!|katana.titles.ability.none",
      "texture": {
        "type": "CLAY_BALL",
        "data": {
          "other": "cup"
        }
      },
      "rare": "COMMON",
      "notification": ""
    },
    "PALLADIN": {
      "menuTitle": "katana.titles.palladin.name",
      "title": "katana.titles.palladin.name",
      "description": "i18n.katana.titles.description|!|katana.rare.common|!|katana.titles.ability.none",
      "texture": {
        "type": "CLAY_BALL",
        "data": {
          "other": "cup"
        }
      },
      "rare": "COMMON",
      "notification": ""
    },
    "PREDATOR": {
      "menuTitle": "katana.titles.predator.name",
      "title": "katana.titles.predator.name",
      "description": "i18n.katana.titles.description|!|katana.rare.common|!|katana.titles.ability.none",
      "texture": {
        "type": "CLAY_BALL",
        "data": {
          "other": "cup"
        }
      },
      "rare": "COMMON",
      "notification": ""
    },
    "SPY": {
      "menuTitle": "katana.titles.spy.name",
      "title": "katana.titles.spy.name",
      "description": "i18n.katana.titles.description|!|katana.rare.common|!|katana.titles.ability.none",
      "texture": {
        "type": "CLAY_BALL",
        "data": {
          "other": "cup"
        }
      },
      "rare": "COMMON",
      "notification": ""
    },
    "MONK": {
      "menuTitle": "katana.titles.monk.name",
      "title": "katana.titles.spy.name",
      "description": "i18n.katana.titles.description|!|katana.rare.common|!|katana.titles.ability.none",
      "texture": {
        "type": "CLAY_BALL",
        "data": {
          "other": "cup"
        }
      },
      "rare": "COMMON",
      "notification": ""
    },
    "NECROMANCER": {
      "menuTitle": "katana.titles.necromancer.name",
      "title": "katana.titles.necromancer.name",
      "description": "i18n.katana.titles.description|!|katana.rare.common|!|katana.titles.ability.none",
      "texture": {
        "type": "CLAY_BALL",
        "data": {
          "other": "cup"
        }
      },
      "rare": "COMMON",
      "notification": ""
    },
    "DAEMON": {
      "menuTitle": "katana.titles.daemon.name",
      "title": "katana.titles.daemon.name",
      "description": "i18n.katana.titles.description|!|katana.rare.common|!|katana.titles.ability.none",
      "texture": {
        "type": "CLAY_BALL",
        "data": {
          "other": "cup"
        }
      },
      "rare": "COMMON",
      "notification": ""
    },
    "WARLOCK": {
      "menuTitle": "katana.titles.warlock.name",
      "title": "katana.titles.warlock.name",
      "description": "i18n.katana.titles.description|!|katana.rare.common|!|katana.titles.ability.none",
      "texture": {
        "type": "CLAY_BALL",
        "data": {
          "other": "cup"
        }
      },
      "rare": "COMMON",
      "notification": ""
    },
    "EMPEROR": {
      "menuTitle": "katana.titles.emperor.name",
      "title": "katana.titles.emperor.name",
      "description": "i18n.katana.titles.description|!|katana.rare.common|!|katana.titles.ability.none",
      "texture": {
        "type": "CLAY_BALL",
        "data": {
          "other": "cup"
        }
      },
      "rare": "COMMON",
      "notification": ""
    },
    "MUTANT": {
      "menuTitle": "katana.titles.mutant.name",
      "title": "katana.titles.mutant.name",
      "description": "i18n.katana.titles.description|!|katana.rare.common|!|katana.titles.ability.none",
      "texture": {
        "type": "CLAY_BALL",
        "data": {
          "other": "cup"
        }
      },
      "rare": "COMMON",
      "notification": ""
    },
    "PIRATE": {
      "menuTitle": "katana.titles.pirate.name",
      "title": "katana.titles.pirate.name",
      "description": "i18n.katana.titles.description|!|katana.rare.common|!|katana.titles.ability.none",
      "texture": {
        "type": "CLAY_BALL",
        "data": {
          "other": "cup"
        }
      },
      "rare": "COMMON",
      "notification": ""
    },
    "BLOGGER": {
      "menuTitle": "katana.titles.blogger.name",
      "title": "katana.titles.blogger.name",
      "description": "i18n.katana.titles.description|!|katana.rare.common|!|katana.titles.ability.none",
      "texture": {
        "type": "CLAY_BALL",
        "data": {
          "other": "cup"
        }
      },
      "rare": "COMMON",
      "notification": ""
    },
    "BANKER": {
      "menuTitle": "katana.titles.banker.name",
      "title": "katana.titles.banker.name",
      "description": "i18n.katana.titles.description|!|katana.rare.rare|!|katana.titles.ability.banker",
      "texture": {
        "type": "CLAY_BALL",
        "data": {
          "other": "cup"
        }
      },
      "rare": "RARE",
      "stat": 1.25,
      "notification": ""
    },
    "DODGER": {
      "menuTitle": "katana.titles.dogger.name",
      "title": "katana.titles.dogger.name",
      "description": "i18n.katana.titles.description|!|katana.rare.rare|!|katana.titles.ability.dogger",
      "texture": {
        "type": "CLAY_BALL",
        "data": {
          "other": "cup"
        }
      },
      "rare": "RARE",
      "stat": 1.0,
      "notification": ""
    },
    "LIVELY": {
      "menuTitle": "katana.titles.lively.name",
      "title": "katana.titles.lively.name",
      "description": "i18n.katana.titles.description|!|katana.rare.rare|!|katana.titles.ability.lively",
      "texture": {
        "type": "CLAY_BALL",
        "data": {
          "other": "cup"
        }
      },
      "rare": "RARE",
      "stat": 1.0,
      "notification": ""
    },
    "ASSASSIN": {
      "menuTitle": "katana.titles.assassin.name",
      "title": "katana.titles.assassin.name",
      "description": "i18n.katana.titles.description|!|katana.rare.rare|!|katana.titles.ability.assassin",
      "texture": {
        "type": "CLAY_BALL",
        "data": {
          "other": "cup"
        }
      },
      "rare": "RARE",
      "stat": 0.02,
      "notification": ""
    },
    "MESSENGER": {
      "menuTitle": "katana.titles.messenger.name",
      "title": "katana.titles.messenger.name",
      "description": "i18n.katana.titles.description|!|katana.rare.rare|!|katana.titles.ability.messenger",
      "texture": {
        "type": "CLAY_BALL",
        "data": {
          "other": "cup"
        }
      },
      "rare": "RARE",
      "stat": 0.01,
      "notification": ""
    },
    "TANK": {
      "menuTitle": "katana.titles.tank.name",
      "title": "katana.titles.tank.name",
      "description": "i18n.katana.titles.description|!|katana.rare.mythic|!|katana.titles.ability.tank",
      "texture": {
        "type": "CLAY_BALL",
        "data": {
          "other": "cup"
        }
      },
      "rare": "MYTHIC",
      "stat": 2.0,
      "notification": ""
    },
    "CHAMPION": {
      "menuTitle": "katana.titles.champion.name",
      "title": "katana.titles.champion.name",
      "description": "i18n.katana.titles.description|!|katana.rare.mythic|!|katana.titles.ability.champion",
      "texture": {
        "type": "CLAY_BALL",
        "data": {
          "other": "cup"
        }
      },
      "rare": "MYTHIC",
      "stat": 0.5,
      "notification": ""
    },
    "VAMPIRE": {
      "menuTitle": "katana.titles.vampire.name",
      "title": "katana.titles.vampire.name",
      "description": "i18n.katana.titles.description|!|katana.rare.mythic|!|katana.titles.ability.vampire",
      "texture": {
        "type": "CLAY_BALL",
        "data": {
          "other": "cup"
        }
      },
      "rare": "MYTHIC",
      "stat": 2.0,
      "notification": ""
    },
    "HERO": {
      "menuTitle": "katana.titles.hero.name",
      "title": "katana.titles.hero.name",
      "description": "i18n.katana.titles.description|!|katana.rare.mythic|!|katana.titles.ability.hero",
      "texture": {
        "type": "CLAY_BALL",
        "data": {
          "other": "cup"
        }
      },
      "rare": "MYTHIC",
      "stat": 1.0,
      "notification": ""
    },
    "TREASURE_HUNTER": {
      "menuTitle": "katana.titles.treasure_hunter.name",
      "title": "katana.titles.treasure_hunter.name",
      "description": "i18n.katana.titles.description|!|katana.rare.mythic|!|katana.titles.ability.treasure_hunter",
      "texture": {
        "type": "CLAY_BALL",
        "data": {
          "other": "cup"
        }
      },
      "rare": "MYTHIC",
      "stat": 1.5,
      "notification": ""
    },
    "DEXTEROUS_HANDLES": {
      "menuTitle": "katana.titles.dexterous_handles.name",
      "title": "katana.titles.dexterous_handles.name",
      "description": "i18n.katana.titles.description|!|katana.rare.legendary|!|katana.titles.ability.dexterous_handles",
      "texture": {
        "type": "CLAY_BALL",
        "data": {
          "other": "cup"
        }
      },
      "rare": "LEGENDARY",
      "stat": 1.0,
      "notification": ""
    },
    "LUCKY": {
      "menuTitle": "katana.titles.lucky.name",
      "title": "katana.titles.lucky.name",
      "description": "i18n.katana.titles.description|!|katana.rare.legendary|!|katana.titles.ability.lucky",
      "texture": {
        "type": "CLAY_BALL",
        "data": {
          "other": "cup"
        }
      },
      "rare": "LEGENDARY",
      "stat": 5.0,
      "notification": ""
    },
    "HUNTER": {
      "menuTitle": "katana.titles.hunter.name",
      "title": "katana.titles.hunter.name",
      "description": "i18n.katana.titles.description|!|katana.rare.legendary|!|katana.titles.ability.hunter",
      "texture": {
        "type": "CLAY_BALL",
        "data": {
          "other": "cup"
        }
      },
      "rare": "LEGENDARY",
      "stat": 5.0,
      "notification": ""
    },
    "HEDGEHOG": {
      "menuTitle": "katana.titles.hedgehog.name",
      "title": "katana.titles.hedgehog.name",
      "description": "i18n.katana.titles.description|!|katana.rare.legendary|!|katana.titles.ability.hedgehog",
      "texture": {
        "type": "CLAY_BALL",
        "data": {
          "other": "cup"
        }
      },
      "rare": "LEGENDARY",
      "stat": 1.0,
      "notification": ""
    }
  }
}